…
``` r
homicides_summarize_within_cities = homicides_by_city_state |>
  group_by(city_state)  |>
  mutate(unsolved = disposition %in% c("Closed without arrest","Open/No arrest")) |>
  summarise(total_homicides = n(), unsolved_homicides = sum(unsolved)) 
```

``` r
homicides_summarize_within_cities
```

    ## # A tibble: 51 × 3
    ##    city_state      total_homicides unsolved_homicides
    ##    <chr>                     <int>              <int>
    ##  1 Albuquerque, NM             378                146
    ##  2 Atlanta, GA                 973                373
    ##  3 Baltimore, MD              2827               1825
    ##  4 Baton Rouge, LA             424                196
    ##  5 Birmingham, AL              800                347
    ##  6 Boston, MA                  614                310
    ##  7 Buffalo, NY                 521                319
    ##  8 Charlotte, NC               687                206
    ##  9 Chicago, IL                5535               4073
    ## 10 Cincinnati, OH              694                309
    ## # ℹ 41 more rows
…
    ## Warning: There was 1 warning in `mutate()`.
    ## ℹ In argument: `prop_tests = map2(...)`.
    ## Caused by warning in `prop.test()`:
    ## ! Chi-squared approximation may be incorrect

``` r
cities_result
```

    ## # A tibble: 51 × 4
    ##    city_state      estimate conf.low conf.high
    ##    <chr>              <dbl>    <dbl>     <dbl>
    ##  1 Albuquerque, NM    0.386    0.337     0.438
    ##  2 Atlanta, GA        0.383    0.353     0.415
    ##  3 Baltimore, MD      0.646    0.628     0.663
    ##  4 Baton Rouge, LA    0.462    0.414     0.511
    ##  5 Birmingham, AL     0.434    0.399     0.469
    ##  6 Boston, MA         0.505    0.465     0.545
    ##  7 Buffalo, NY        0.612    0.569     0.654
    ##  8 Charlotte, NC      0.300    0.266     0.336
    ##  9 Chicago, IL        0.736    0.724     0.747
    ## 10 Cincinnati, OH     0.445    0.408     0.483
    ## # ℹ 41 more rows
…
``` r
files_dataframe
```

    ## # A tibble: 160 × 4
    ##    id    arm   week   data
    ##    <chr> <chr> <chr> <dbl>
    ##  1 01    con   1      0.2 
    ##  2 01    con   2     -1.31
    ##  3 01    con   3      0.66
    ##  4 01    con   4      1.96
    ##  5 01    con   5      0.23
    ##  6 01    con   6      1.09
    ##  7 01    con   7      0.05
    ##  8 01    con   8      1.94
    ##  9 02    con   1      1.13
    ## 10 02    con   2     -0.88
    ## # ℹ 150 more rows
…
